Introduction to Machine Learning for Economists (Under Construction) - 3 Cross-validation
…
Even though we compared different specification of the same approach (GAM), we can compare across different models as well. For example, you can find KCV for an RF model with a particular specifications of its hyper-parameters and compare the KCV with those of the GAM model specifications and see what comes at the top.

3.4 Repeated K-fold Cross-Validation (RKCV)

As its name suggest, repeated KCV repeats the process of KCV multiple times. Each KCV iteration splits the original data into k-fold in a different way. A single KCV may not be reliable as the original data was split into such a way that favors one parameter set of or model class over the others. However, if we repeat KCV multiple times, then we can safe-guard against this randomness in a KCV procedure. Repeated KCV is preferred over a single KCV.

You can use rsample::vfold_cv() to create repeated k-fold datasets by using the repeats argument.

#=== split into 5 groups ===#
(
data_folds <- rsample::vfold_cv(data, v = 5, repeats = 5)
)

#  5-fold cross-validation repeated 5 times 
# A tibble: 25 × 3
   splits            id      id2  
   <list>            <chr>   <chr>
 1 <split [400/100]> Repeat1 Fold1
 2 <split [400/100]> Repeat1 Fold2
 3 <split [400/100]> Repeat1 Fold3
 4 <split [400/100]> Repeat1 Fold4
 5 <split [400/100]> Repeat1 Fold5
 6 <split [400/100]> Repeat2 Fold1
 7 <split [400/100]> Repeat2 Fold2
 8 <split [400/100]> Repeat2 Fold3
 9 <split [400/100]> Repeat2 Fold4
10 <split [400/100]> Repeat2 Fold5
# … with 15 more rows
…
